<?xml version="1.0" encoding="UTF-8" standalone="no"?>
<!-- Creator: fig2dev Version 3.2 Patchlevel 5 -->
<!-- CreationDate: Wed Jun 25 22:05:06 2008 -->
<!-- Magnification: 1.000 -->
<svg
   xmlns:dc="http://purl.org/dc/elements/1.1/"
   xmlns:cc="http://creativecommons.org/ns#"
   xmlns:rdf="http://www.w3.org/1999/02/22-rdf-syntax-ns#"
   xmlns:svg="http://www.w3.org/2000/svg"
   xmlns="http://www.w3.org/2000/svg"
   xmlns:sodipodi="http://sodipodi.sourceforge.net/DTD/sodipodi-0.dtd"
   xmlns:inkscape="http://www.inkscape.org/namespaces/inkscape"
   width="5.7in"
   height="5.0in"
   viewBox="2453 2488 6859 6026"
   id="svg2474"
   sodipodi:version="0.32"
   inkscape:version="0.46"
   sodipodi:docname="logo-imecc3.svg"
   inkscape:output_extension="org.inkscape.output.svg.inkscape">
  <metadata
     id="metadata2517">
    <rdf:RDF>
      <cc:Work
         rdf:about="">
        <dc:format>image/svg+xml</dc:format>
        <dc:type
           rdf:resource="http://purl.org/dc/dcmitype/StillImage" />
      </cc:Work>
    </rdf:RDF>
  </metadata>
  <defs
     id="defs2515">
    <inkscape:perspective
       sodipodi:type="inkscape:persp3d"
       inkscape:vp_x="0 : 225 : 1"
       inkscape:vp_y="0 : 1000 : 0"
       inkscape:vp_z="513 : 225 : 1"
       inkscape:persp3d-origin="256.5 : 150 : 1"
       id="perspective2519" />
  </defs>
  <sodipodi:namedview
     inkscape:window-height="822"
     inkscape:window-width="1004"
     inkscape:pageshadow="2"
     inkscape:pageopacity="0.0"
     guidetolerance="10.0"
     gridtolerance="10.0"
     objecttolerance="10.0"
     borderopacity="1.0"
     bordercolor="#666666"
     pagecolor="#ffffff"
     id="base"
     showgrid="false"
     inkscape:zoom="0.72282027"
     inkscape:cx="224.19096"
     inkscape:cy="274.88345"
     inkscape:window-x="174"
     inkscape:window-y="36"
     inkscape:current-layer="svg2474" />
  <g
     style="stroke-width:.025in; stroke:black; fill:none"
     id="g2476">
<!-- Arc -->    <path
       style="fill:#d10000;stroke:#d10000;stroke-width:90.45584869;stroke-linecap:butt"
       d="M 7711.7474,6783.4477 C 7427.1891,6785.7478 7154.8697,6913.9304 6986.0972,7137.0266 C 6770.0682,7422.5898 6770.0682,7802.6295 6986.0972,8088.1926 C 7202.1262,8373.7557 7588.0947,8503.745 7951.8122,8413.4075 L 7951.8122,7997.491 C 7723.7306,8087.5635 7510.2944,8084.3599 7370.1168,7929.665 C 7201.5035,7743.5894 7201.5037,7481.6296 7370.1168,7295.5543 C 7510.3007,7140.8521 7763.0216,7124.5441 7951.8122,7214.6282 L 7951.8122,6811.8117 C 7872.249,6792.0505 7791.4237,6782.8036 7711.7474,6783.4477 z"
       id="path2478"
       sodipodi:nodetypes="cssccssccc" />
<!-- Arc --><!-- Arc -->    <path
       style="stroke:#000000;stroke-width:7;stroke-linecap:butt;fill:#000000"
       d="M 2475,5925 A 638 638  0  0  1  3075  6525 "
       id="path2482" />
<!-- Arc -->    <path
       style="stroke:#d10000;stroke-width:105;stroke-linecap:butt;"
       d="M 2550,2550 A 3815 3815  0  0  1  6375  6525 "
       id="path2484" />
<!-- Arc --><!-- Arc --><!-- Line: box -->    <rect
       x="8475"
       y="3675"
       width="825"
       height="2850"
       rx="0"
       style="stroke:#000000;stroke-width:7; stroke-linejoin:miter; stroke-linecap:butt; fill:#000000; "
       id="rect2490" />
<!-- Line: box -->    <rect
       x="8475"
       y="2550"
       width="825"
       height="975"
       rx="0"
       style="stroke:#000000;stroke-width:7; stroke-linejoin:miter; stroke-linecap:butt; fill:#000000; "
       id="rect2492" />
<!-- Line: box -->    <rect
       x="2475"
       y="6750"
       width="600"
       height="1650"
       rx="0"
       style="stroke:#000000;stroke-width:7; stroke-linejoin:miter; stroke-linecap:butt; fill:#000000; "
       id="rect2494" />
<!-- Line -->    <polygon
       points="2475,5925 2475,6525 3075,6525 2475,5925 "
       style="stroke:#000000;stroke-width:7; stroke-linejoin:miter; stroke-linecap:butt; fill:#000000; "
       id="polygon2496" />
<!-- Line -->    <polygon
       points="3300,8400 3525,6750 4050,6750 4350,7725 4650,6750 5175,6750 5400,8400 4800,8400 4800,7575 4500,8400 4200,8400 3900,7575 3900,8400 3300,8400 "
       style="stroke:#000000;stroke-width:7; stroke-linejoin:miter; stroke-linecap:butt; fill:#000000; "
       id="polygon2498" />
<!-- Line -->    <polygon
       points="5625,6750 5625,8400 6675,8400 6675,8025 6075,8025 6075,7725 6525,7725 6525,7425 6075,7425 6075,7125 6675,7125 6675,6750 5625,6750 "
       style="stroke:#000000;stroke-width:7; stroke-linejoin:miter; stroke-linecap:butt; fill:#000000; "
       id="polygon2500" />
<!-- Line -->    <polyline
       points="2475,6525 8475,2550 "
       style="stroke:#000000;stroke-width:29.72826667;stroke-linejoin:miter;stroke-linecap:butt;fill:#ffffff;stroke-miterlimit:4;stroke-dasharray:none"
       id="polyline2502" />
<!-- Line -->    <polyline
       points="2475,6525 8475,4575 "
       style="stroke:#000000;stroke-width:29.72826667;stroke-linejoin:miter;stroke-linecap:butt;fill:#ffffff;stroke-miterlimit:4;stroke-dasharray:none"
       id="polyline2504" />
<!-- Line -->    <polyline
       points="2475,6525 8475,5550 "
       style="stroke:#000000;stroke-width:29.72826667;stroke-linejoin:miter;stroke-linecap:butt;fill:#ffffff;stroke-miterlimit:4;stroke-dasharray:none"
       id="polyline2506" />
<!-- Line -->    <polyline
       points="2475,6525 8550,6525 "
       style="stroke:#000000;stroke-width:29.72826667;stroke-linejoin:miter;stroke-linecap:butt;fill:#ffffff;stroke-miterlimit:4;stroke-dasharray:none"
       id="polyline2508" />
<!-- Line -->    <polyline
       points="2475,6525 8475,3675 "
       style="stroke:#000000;stroke-width:29.72826667;stroke-linejoin:miter;stroke-linecap:butt;stroke-miterlimit:4;stroke-dasharray:none"
       id="polyline2510" />
<!-- Line -->    <polyline
       points="2475,6525 8475,3525 "
       style="stroke:#000000;stroke-width:29.72826667;stroke-linejoin:miter;stroke-linecap:butt;stroke-miterlimit:4;stroke-dasharray:none"
       id="polyline2512" />
  </g>
  <path
     style="fill:#000000;stroke:#010000;stroke-width:90.45584868999999628;stroke-linecap:butt;fill-opacity:1;stroke-opacity:1"
     d="M 9033.2835,6767.8535 C 8748.7252,6770.1536 8476.4058,6898.3362 8307.6333,7121.4324 C 8091.6043,7406.9956 8091.6043,7787.0353 8307.6333,8072.5984 C 8523.6623,8358.1615 8909.6308,8488.1508 9273.3483,8397.8133 L 9273.3483,7981.8968 C 9045.2667,8071.9693 8831.8305,8068.7657 8691.6529,7914.0708 C 8523.0396,7727.9952 8523.0398,7466.0354 8691.6529,7279.9601 C 8831.8368,7125.2579 9084.5577,7108.9499 9273.3483,7199.034 L 9273.3483,6796.2175 C 9193.7851,6776.4563 9112.9598,6767.2094 9033.2835,6767.8535 z"
     id="path16328"
     sodipodi:nodetypes="cssccssccc" />
</svg>
